…
```r
library(lattice)
```
Total number of steps per day

```r
step_sum<-activity %>% group_by (date) %>% summarize (step_sum = sum(steps,na.rm = TRUE))
step_sum
```

```
## # A tibble: 61 x 2
##    date       step_sum
##    <date>        <int>
##  1 2012-10-01        0
##  2 2012-10-02      126
##  3 2012-10-03    11352
##  4 2012-10-04    12116
##  5 2012-10-05    13294
##  6 2012-10-06    15420
##  7 2012-10-07    11015
##  8 2012-10-08        0
##  9 2012-10-09    12811
## 10 2012-10-10     9900
## # ... with 51 more rows
```
…
```r
activity %>% group_by (date) %>% summarize (step_mean = mean(steps,na.rm = TRUE), step_median=median(steps,na.rm = TRUE))
```

```
## # A tibble: 61 x 3
##    date       step_mean step_median
##    <date>         <dbl>       <dbl>
##  1 2012-10-01   NaN              NA
##  2 2012-10-02     0.438           0
##  3 2012-10-03    39.4             0
##  4 2012-10-04    42.1             0
##  5 2012-10-05    46.2             0
##  6 2012-10-06    53.5             0
##  7 2012-10-07    38.2             0
##  8 2012-10-08   NaN              NA
##  9 2012-10-09    44.5             0
## 10 2012-10-10    34.4             0
## # ... with 51 more rows
```
…
```r
# summary of mean and median total number of steps taken per day after imputing
activity1 %>% group_by (date) %>% summarize (step_mean = mean(steps), step_median=median(steps))
```

```
## # A tibble: 61 x 3
##    date       step_mean step_median
##    <date>         <dbl>       <dbl>
##  1 2012-10-01    37.4          34.1
##  2 2012-10-02     0.438         0  
##  3 2012-10-03    39.4           0  
##  4 2012-10-04    42.1           0  
##  5 2012-10-05    46.2           0  
##  6 2012-10-06    53.5           0  
##  7 2012-10-07    38.2           0  
##  8 2012-10-08    37.4          34.1
##  9 2012-10-09    44.5           0  
## 10 2012-10-10    34.4           0  
## # ... with 51 more rows
```
…
